John Askham
…
4a) Read the provided Excel file “Folkatal_1985_2025.xlsx” into the object folkatal, skipping the metadata line. Display the object as simply as possible (do not use kable()).

```{r}
#| label: 4a

# code here

folkatal <- read_excel("data/Folkatal_1985_2025.xlsx", skip = 1)

folkatal
```

# A tibble: 202 × 43
   Kyn     Aldur `1985` `1986` `1987` `1988` `1989` `1990` `1991` `1992` `1993`
   <chr>   <chr> <chr>  <chr>  <chr>  <chr>   <dbl> <chr>  <chr>  <chr>  <chr> 
 1 Kvinnur 0 ár  336    357    388    395       429 436    445    438    388   
 2 <NA>    1 ár  295    338    349    395       390 426    424    432    427   
 3 <NA>    2 ár  357    290    336    356       398 390    418    411    434   
 4 <NA>    3 ár  381    356    289    336       361 386    384    415    401   
 5 <NA>    4 ár  366    384    361    286       331 353    383    378    402   
 6 <NA>    5 ár  361    367    385    369       289 332    347    377    382   
 7 <NA>    6 ár  381    364    366    385       368 293    324    342    369   
 8 <NA>    7 ár  379    377    364    376       384 364    291    324    335   
 9 <NA>    8 ár  376    377    377    361       372 374    358    288    327   
10 <NA>    9 ár  367    375    376    382       367 366    368    358    287   
# ℹ 192 more rows
# ℹ 32 more variables: `1994` <chr>, `1995` <chr>, `1996` <chr>, `1997` <chr>,
#   `1998` <chr>, `1999` <chr>, `2000` <chr>, `2001` <chr>, `2002` <chr>,
#   `2003` <chr>, `2004` <dbl>, `2005` <chr>, `2006` <dbl>, `2007` <dbl>,
#   `2008` <dbl>, `2009` <chr>, `2010` <chr>, `2011` <chr>, `2012` <chr>,
#   `2013` <chr>, `2014` <chr>, `2015` <chr>, `2016` <dbl>, `2017` <dbl>,
#   `2018` <chr>, `2019` <chr>, `2020` <chr>, `2021` <chr>, `2022` <dbl>, …
…
4c) Note that the column Aldur in folkatal is of type chr and contains numbers and text. Use a pipe and mutate() together with a string replacement function from stringr to modify the column so that it contains only the numbers. Save your results in an updated object folkatal and display it. Check that the type of column Aldur is still chr and do not change it here.

```{r}
#| label: 4c

# code here
folkatal <- folkatal |>
  mutate(Aldur = str_remove(Aldur, " ár"))

tibble(folkatal)
```

# A tibble: 202 × 43
   Kyn     Aldur `1985` `1986` `1987` `1988` `1989` `1990` `1991` `1992` `1993`
   <chr>   <chr> <chr>  <chr>  <chr>  <chr>   <dbl> <chr>  <chr>  <chr>  <chr> 
 1 Kvinnur 0     336    357    388    395       429 436    445    438    388   
 2 Kvinnur 1     295    338    349    395       390 426    424    432    427   
 3 Kvinnur 2     357    290    336    356       398 390    418    411    434   
 4 Kvinnur 3     381    356    289    336       361 386    384    415    401   
 5 Kvinnur 4     366    384    361    286       331 353    383    378    402   
 6 Kvinnur 5     361    367    385    369       289 332    347    377    382   
 7 Kvinnur 6     381    364    366    385       368 293    324    342    369   
 8 Kvinnur 7     379    377    364    376       384 364    291    324    335   
 9 Kvinnur 8     376    377    377    361       372 374    358    288    327   
10 Kvinnur 9     367    375    376    382       367 366    368    358    287   
# ℹ 192 more rows
# ℹ 32 more variables: `1994` <chr>, `1995` <chr>, `1996` <chr>, `1997` <chr>,
#   `1998` <chr>, `1999` <chr>, `2000` <chr>, `2001` <chr>, `2002` <chr>,
#   `2003` <chr>, `2004` <dbl>, `2005` <chr>, `2006` <dbl>, `2007` <dbl>,
#   `2008` <dbl>, `2009` <chr>, `2010` <chr>, `2011` <chr>, `2012` <chr>,
#   `2013` <chr>, `2014` <chr>, `2015` <chr>, `2016` <dbl>, `2017` <dbl>,
#   `2018` <chr>, `2019` <chr>, `2020` <chr>, `2021` <chr>, `2022` <dbl>, …
…
